pkg_version=(
	"1.10.10"
)

pkg_url=(

	"https://github.com/ros/ros_comm/archive/${pkg_version}.tar.gz"
)

pkg_checksum=(
	md5:

)

pkg_build=(
	"catkin"
)
pkg_submodules=\
(
	'messages/std_srvs'
	'messages/rosgraph_msgs'
	'clients/rospy'
	'tools/rosconsole'
	'utilities/xmlrpcpp'
	'clients/roscpp'
	'tools/rostest'
	'tools/topic_tools'
	'tools/rosbag_storage'
	'tools/rosbag'
	'tools/rosgraph'
	'tools/roslaunch'
	'tools/rosmaster'
	'tools/rosmsg'
	'tools/rosnode'
	'tools/rosout'
	'tools/rosparam'
	'tools/rostopic'
	'tools/rosservice'
	'utilities/message_filters'
	'utilities/roswtf'
)
